<svg 
 xmlns="http://www.w3.org/2000/svg"
 xmlns:xlink="http://www.w3.org/1999/xlink"
 width="499px" height="500px">
<defs>
<filter filterUnits="userSpaceOnUse" id="Filter_0" x="0px" y="0px" width="499px" height="500px"  >
    <feOffset in="SourceAlpha" dx="0" dy="2" />
    <feGaussianBlur result="blurOut" stdDeviation="2" />
    <feFlood flood-color="rgb(12, 10, 6)" result="floodOut" />
    <feComposite operator="atop" in="floodOut" in2="blurOut" />
    <feComponentTransfer><feFuncA type="linear" slope="0.19"/></feComponentTransfer>
    <feMerge>
    <feMergeNode/>
    <feMergeNode in="SourceGraphic"/>
  </feMerge>
</filter>

</defs>
<g filter="url(#Filter_0)">
<path fill-rule="evenodd"  fill="rgb(127, 96, 41)"
 d="M479.905,176.065 C471.838,149.112 449.340,130.036 422.946,124.473 C427.434,98.612 417.560,71.238 394.783,53.951 C370.312,35.378 337.821,33.657 312.076,46.997 C300.261,21.092 273.573,3.011 242.512,3.011 C213.596,3.011 188.459,18.669 175.587,41.727 C151.267,30.325 121.437,31.892 97.983,48.304 C74.526,64.717 63.557,91.689 67.001,117.700 C40.397,122.260 17.145,140.457 7.999,167.087 C-1.152,193.718 6.188,221.828 24.643,240.979 C5.809,259.773 -2.099,287.741 6.509,314.537 C15.118,341.336 37.998,359.976 64.509,365.036 C60.539,390.979 70.962,418.154 94.083,435.010 C117.204,451.866 146.987,453.999 171.540,443.060 C183.944,466.355 208.759,482.493 237.668,483.042 C266.570,483.590 292.024,468.413 305.360,445.603 C329.448,457.467 359.297,456.468 383.080,440.509 C406.859,424.548 418.373,397.786 415.455,371.712 C442.143,367.662 465.760,349.908 475.444,323.458 C485.128,297.008 478.357,268.766 460.293,249.266 C479.502,230.832 487.975,203.019 479.905,176.065 "/>
 <path fill-rule="evenodd"  opacity="0.78" fill="rgb(255, 255, 255)"
 d="M389.652,209.839 C405.044,226.455 410.813,250.520 402.562,273.057 C394.310,295.595 374.187,310.722 351.446,314.173 C353.932,336.390 344.121,359.194 323.860,372.795 C303.595,386.392 278.161,387.244 257.636,377.135 C246.272,396.571 224.583,409.503 199.957,409.035 C175.324,408.568 154.179,394.817 143.610,374.968 C122.689,384.289 97.311,382.471 77.610,368.108 C57.910,353.746 49.028,330.590 52.411,308.485 C29.822,304.173 10.325,288.290 2.990,265.455 C-4.345,242.623 2.393,218.792 18.442,202.778 C2.717,186.460 -3.538,162.507 4.259,139.816 C12.053,117.125 31.866,101.619 54.534,97.734 C51.600,75.571 60.946,52.588 80.934,38.603 C100.918,24.618 126.335,23.283 147.059,32.998 C158.027,13.351 179.445,0.010 204.084,0.010 C230.550,0.010 253.291,15.416 263.359,37.489 C285.295,26.123 312.981,27.589 333.832,43.414 C353.240,58.145 361.653,81.470 357.829,103.505 C380.319,108.245 399.489,124.500 406.363,147.466 C413.239,170.433 406.020,194.132 389.652,209.839 M350.029,163.215 C345.090,146.708 331.310,135.027 315.150,131.618 C317.899,115.783 311.853,99.020 297.902,88.432 C282.915,77.062 263.020,76.006 247.255,84.175 C240.018,68.311 223.673,57.239 204.655,57.239 C186.948,57.239 171.553,66.826 163.671,80.948 C148.779,73.967 130.509,74.924 116.149,84.975 C101.782,95.026 95.063,111.542 97.173,127.473 C80.881,130.268 66.646,141.407 61.041,157.719 C55.437,174.024 59.934,191.239 71.235,202.967 C59.703,214.477 54.857,231.602 60.132,248.010 C65.399,264.424 79.414,275.839 95.650,278.937 C93.217,294.826 99.599,311.465 113.759,321.788 C127.918,332.111 146.155,333.417 161.195,326.717 C168.790,340.984 183.984,350.865 201.688,351.201 C219.388,351.537 234.974,342.245 243.144,328.276 C257.893,335.542 276.170,334.928 290.735,325.155 C305.299,315.383 312.348,298.994 310.561,283.025 C326.906,280.544 341.365,269.674 347.299,253.477 C353.226,237.281 349.083,219.983 338.019,208.043 C349.785,196.754 354.974,179.722 350.029,163.215 "/>
<path fill-rule="evenodd"  fill="rgb(255, 255, 255)"
 d="M188.861,5.585 L185.462,35.308 C185.225,37.442 183.802,38.786 181.826,38.786 C179.850,38.786 178.427,37.442 178.190,35.308 L174.790,5.585 C174.553,3.293 175.818,1.554 177.952,1.554 L185.699,1.554 C187.834,1.554 189.098,3.293 188.861,5.585 ZM161.357,13.016 L149.658,13.016 L149.658,51.513 C149.658,54.912 146.970,57.600 143.571,57.600 C140.172,57.600 137.484,54.912 137.484,51.513 L137.484,13.016 L125.785,13.016 C122.702,13.016 120.172,10.486 120.172,7.403 C120.172,4.320 122.702,1.791 125.785,1.791 L161.357,1.791 C164.440,1.791 166.970,4.320 166.970,7.403 C166.970,10.486 164.440,13.016 161.357,13.016 ZM86.862,58.074 C69.787,58.074 57.535,45.347 57.535,29.616 L57.535,29.458 C57.535,13.727 69.945,0.842 87.020,0.842 C104.095,0.842 116.348,13.569 116.348,29.300 L116.348,29.458 C116.348,45.189 103.937,58.074 86.862,58.074 ZM103.621,29.458 C103.621,19.972 96.664,12.067 86.862,12.067 C77.060,12.067 70.262,19.814 70.262,29.300 L70.262,29.458 C70.262,38.944 77.218,46.849 87.020,46.849 C96.822,46.849 103.621,39.102 103.621,29.616 L103.621,29.458 ZM40.809,57.600 C37.410,57.600 34.723,54.912 34.723,51.513 L34.723,34.913 L12.273,34.913 L12.273,51.513 C12.273,54.912 9.585,57.600 6.186,57.600 C2.787,57.600 0.099,54.912 0.099,51.513 L0.099,7.403 C0.099,4.004 2.787,1.317 6.186,1.317 C9.585,1.317 12.273,4.004 12.273,7.403 L12.273,23.688 L34.723,23.688 L34.723,7.403 C34.723,4.004 37.410,1.317 40.809,1.317 C44.209,1.317 46.896,4.004 46.896,7.403 L46.896,51.513 C46.896,54.912 44.209,57.600 40.809,57.600 ZM181.826,44.003 C185.778,44.003 188.703,46.928 188.703,50.722 L188.703,50.881 C188.703,54.675 185.778,57.600 181.826,57.600 C177.873,57.600 174.949,54.675 174.949,50.881 L174.949,50.722 C174.949,46.928 177.873,44.003 181.826,44.003 Z"/>
</g>
</svg>